{
	"nodes": [
		"Module",
		"FunctionDef",
		"arguments",
		"arg",
		"Return",
		"Name",
		"Expr",
		"Call",
		"Name",
		"Call",
		"Name",
		"List",
		"Num",
		"Num",
		"Num",
		"Num"
	],
	"adj": [
		[
			1,
			6
		],
		[
			2,
			4
		],
		[
			3
		],
		[],
		[
			5
		],
		[],
		[
			7
		],
		[
			8,
			9
		],
		[],
		[
			10,
			11
		],
		[],
		[
			12,
			13,
			14,
			15
		],
		[],
		[],
		[],
		[]
	]
}