{
	"nodes": [
		"Module",
		"FunctionDef",
		"arguments",
		"arg",
		"For",
		"Name",
		"Call",
		"Name",
		"Call",
		"Name",
		"Name",
		"For",
		"Name",
		"Call",
		"Name",
		"BinOp",
		"Call",
		"Name",
		"Name",
		"Sub",
		"Num",
		"Assign",
		"Name",
		"Subscript",
		"Name",
		"Index",
		"Name",
		"If",
		"Compare",
		"Subscript",
		"Name",
		"Index",
		"Name",
		"Gt",
		"Subscript",
		"Name",
		"Index",
		"BinOp",
		"Name",
		"Add",
		"Num",
		"Then",
		"Assign",
		"Subscript",
		"Name",
		"Index",
		"BinOp",
		"Name",
		"Add",
		"Num",
		"Name",
		"Else",
		"Return",
		"Name",
		"Expr",
		"Call",
		"Name",
		"Call",
		"Name",
		"List",
		"Num",
		"Num",
		"Num",
		"Num"
	],
	"adj": [
		[
			1,
			54
		],
		[
			2,
			4,
			52
		],
		[
			3
		],
		[],
		[
			5,
			6,
			11
		],
		[],
		[
			7,
			8
		],
		[],
		[
			9,
			10
		],
		[],
		[],
		[
			12,
			13,
			21,
			27
		],
		[],
		[
			14,
			15
		],
		[],
		[
			16,
			19,
			20
		],
		[
			17,
			18
		],
		[],
		[],
		[],
		[],
		[
			22,
			23
		],
		[],
		[
			24,
			25
		],
		[],
		[
			26
		],
		[],
		[
			28,
			41,
			51
		],
		[
			29,
			33,
			34
		],
		[
			30,
			31
		],
		[],
		[
			32
		],
		[],
		[],
		[
			35,
			36
		],
		[],
		[
			37
		],
		[
			38,
			39,
			40
		],
		[],
		[],
		[],
		[
			42
		],
		[
			43,
			50
		],
		[
			44,
			45
		],
		[],
		[
			46
		],
		[
			47,
			48,
			49
		],
		[],
		[],
		[],
		[],
		[],
		[
			53
		],
		[],
		[
			55
		],
		[
			56,
			57
		],
		[],
		[
			58,
			59
		],
		[],
		[
			60,
			61,
			62,
			63
		],
		[],
		[],
		[],
		[]
	]
}