{
	"nodes": [
		"Module",
		"FunctionDef",
		"arguments",
		"arg",
		"Assign",
		"Name",
		"Call",
		"Name",
		"Name",
		"For",
		"Name",
		"Call",
		"Name",
		"Num",
		"Name",
		"Assign",
		"Name",
		"NameConstant",
		"If",
		"Compare",
		"Subscript",
		"Name",
		"Index",
		"BinOp",
		"Name",
		"Add",
		"Num",
		"Gt",
		"Subscript",
		"Name",
		"Index",
		"Name",
		"Then",
		"Assign",
		"Name",
		"NameConstant",
		"Else",
		"If",
		"Name",
		"Then",
		"Return",
		"Name",
		"Else",
		"Return",
		"Name",
		"Expr",
		"Call",
		"Name",
		"Call",
		"Name",
		"List",
		"Num",
		"Num",
		"Num",
		"Num"
	],
	"adj": [
		[
			1,
			45
		],
		[
			2,
			4,
			9,
			43
		],
		[
			3
		],
		[],
		[
			5,
			6
		],
		[],
		[
			7,
			8
		],
		[],
		[],
		[
			10,
			11,
			15,
			18,
			37
		],
		[],
		[
			12,
			13,
			14
		],
		[],
		[],
		[],
		[
			16,
			17
		],
		[],
		[],
		[
			19,
			32,
			36
		],
		[
			20,
			27,
			28
		],
		[
			21,
			22
		],
		[],
		[
			23
		],
		[
			24,
			25,
			26
		],
		[],
		[],
		[],
		[],
		[
			29,
			30
		],
		[],
		[
			31
		],
		[],
		[
			33
		],
		[
			34,
			35
		],
		[],
		[],
		[],
		[
			38,
			39,
			42
		],
		[],
		[
			40
		],
		[
			41
		],
		[],
		[],
		[
			44
		],
		[],
		[
			46
		],
		[
			47,
			48
		],
		[],
		[
			49,
			50
		],
		[],
		[
			51,
			52,
			53,
			54
		],
		[],
		[],
		[],
		[]
	]
}