{
	"nodes": [
		"Module",
		"FunctionDef",
		"arguments",
		"arg",
		"While",
		"Name",
		"Assign",
		"Name",
		"Call",
		"Name",
		"Name",
		"For",
		"Name",
		"Call",
		"Name",
		"BinOp",
		"Name",
		"Sub",
		"Num",
		"If",
		"Compare",
		"Subscript",
		"Name",
		"Index",
		"Name",
		"Gt",
		"Subscript",
		"Name",
		"Index",
		"BinOp",
		"Name",
		"Add",
		"Num",
		"Then",
		"Assign",
		"Tuple",
		"Subscript",
		"Name",
		"Index",
		"Name",
		"Subscript",
		"Name",
		"Index",
		"BinOp",
		"Name",
		"Add",
		"Num",
		"Tuple",
		"Subscript",
		"Name",
		"Index",
		"BinOp",
		"Name",
		"Add",
		"Num",
		"Subscript",
		"Name",
		"Index",
		"Name",
		"Else",
		"If",
		"Compare",
		"Name",
		"GtE",
		"BinOp",
		"Name",
		"Sub",
		"Num",
		"Then",
		"Break",
		"Else",
		"Return",
		"Name",
		"Expr",
		"Call",
		"Name",
		"Call",
		"Name",
		"List",
		"Num",
		"Num",
		"Num",
		"Num"
	],
	"adj": [
		[
			1,
			73
		],
		[
			2,
			4,
			71
		],
		[
			3
		],
		[],
		[
			5,
			6,
			11,
			60
		],
		[],
		[
			7,
			8
		],
		[],
		[
			9,
			10
		],
		[],
		[],
		[
			12,
			13,
			19
		],
		[],
		[
			14,
			15
		],
		[],
		[
			16,
			17,
			18
		],
		[],
		[],
		[],
		[
			20,
			33,
			59
		],
		[
			21,
			25,
			26
		],
		[
			22,
			23
		],
		[],
		[
			24
		],
		[],
		[],
		[
			27,
			28
		],
		[],
		[
			29
		],
		[
			30,
			31,
			32
		],
		[],
		[],
		[],
		[
			34
		],
		[
			35,
			47
		],
		[
			36,
			40
		],
		[
			37,
			38
		],
		[],
		[
			39
		],
		[],
		[
			41,
			42
		],
		[],
		[
			43
		],
		[
			44,
			45,
			46
		],
		[],
		[],
		[],
		[
			48,
			55
		],
		[
			49,
			50
		],
		[],
		[
			51
		],
		[
			52,
			53,
			54
		],
		[],
		[],
		[],
		[
			56,
			57
		],
		[],
		[
			58
		],
		[],
		[],
		[
			61,
			68,
			70
		],
		[
			62,
			63,
			64
		],
		[],
		[],
		[
			65,
			66,
			67
		],
		[],
		[],
		[],
		[
			69
		],
		[],
		[],
		[
			72
		],
		[],
		[
			74
		],
		[
			75,
			76
		],
		[],
		[
			77,
			78
		],
		[],
		[
			79,
			80,
			81,
			82
		],
		[],
		[],
		[],
		[]
	]
}