{
	"nodes": [
		"Module",
		"FunctionDef",
		"arguments",
		"arg",
		"Assign",
		"Name",
		"Num",
		"For",
		"Name",
		"Call",
		"Name",
		"Call",
		"Name",
		"Name",
		"While",
		"Compare",
		"Name",
		"Lt",
		"BinOp",
		"Call",
		"Name",
		"Name",
		"Sub",
		"Num",
		"If",
		"Compare",
		"Subscript",
		"Name",
		"Index",
		"Name",
		"Gt",
		"Subscript",
		"Name",
		"Index",
		"BinOp",
		"Name",
		"Add",
		"Num",
		"Then",
		"Assign",
		"Tuple",
		"Subscript",
		"Name",
		"Index",
		"Name",
		"Subscript",
		"Name",
		"Index",
		"BinOp",
		"Name",
		"Add",
		"Num",
		"Tuple",
		"Subscript",
		"Name",
		"Index",
		"BinOp",
		"Name",
		"Add",
		"Num",
		"Subscript",
		"Name",
		"Index",
		"Name",
		"Else",
		"Assign",
		"Name",
		"BinOp",
		"Name",
		"Add",
		"Num",
		"Return",
		"Name",
		"Expr",
		"Call",
		"Name",
		"Call",
		"Name",
		"List",
		"Num",
		"Num",
		"Num",
		"Num"
	],
	"adj": [
		[
			1,
			73
		],
		[
			2,
			4,
			7,
			71
		],
		[
			3
		],
		[],
		[
			5,
			6
		],
		[],
		[],
		[
			8,
			9,
			14
		],
		[],
		[
			10,
			11
		],
		[],
		[
			12,
			13
		],
		[],
		[],
		[
			15,
			24,
			65
		],
		[
			16,
			17,
			18
		],
		[],
		[],
		[
			19,
			22,
			23
		],
		[
			20,
			21
		],
		[],
		[],
		[],
		[],
		[
			25,
			38,
			64
		],
		[
			26,
			30,
			31
		],
		[
			27,
			28
		],
		[],
		[
			29
		],
		[],
		[],
		[
			32,
			33
		],
		[],
		[
			34
		],
		[
			35,
			36,
			37
		],
		[],
		[],
		[],
		[
			39
		],
		[
			40,
			52
		],
		[
			41,
			45
		],
		[
			42,
			43
		],
		[],
		[
			44
		],
		[],
		[
			46,
			47
		],
		[],
		[
			48
		],
		[
			49,
			50,
			51
		],
		[],
		[],
		[],
		[
			53,
			60
		],
		[
			54,
			55
		],
		[],
		[
			56
		],
		[
			57,
			58,
			59
		],
		[],
		[],
		[],
		[
			61,
			62
		],
		[],
		[
			63
		],
		[],
		[],
		[
			66,
			67
		],
		[],
		[
			68,
			69,
			70
		],
		[],
		[],
		[],
		[
			72
		],
		[],
		[
			74
		],
		[
			75,
			76
		],
		[],
		[
			77,
			78
		],
		[],
		[
			79,
			80,
			81,
			82
		],
		[],
		[],
		[],
		[]
	]
}