{
	"nodes": [
		"Module",
		"FunctionDef",
		"arguments",
		"arg",
		"For",
		"Name",
		"Call",
		"Name",
		"Call",
		"Name",
		"Name",
		"If",
		"Compare",
		"Subscript",
		"Name",
		"Index",
		"Name",
		"Gt",
		"Subscript",
		"Name",
		"Index",
		"BinOp",
		"Name",
		"Add",
		"Num",
		"Then",
		"Assign",
		"Subscript",
		"Name",
		"Index",
		"Name",
		"Subscript",
		"Name",
		"Index",
		"BinOp",
		"Name",
		"Add",
		"Num",
		"Else",
		"Return",
		"Name",
		"Expr",
		"Call",
		"Name",
		"Call",
		"Name",
		"List",
		"Num",
		"Num",
		"Num",
		"Num"
	],
	"adj": [
		[
			1,
			41
		],
		[
			2,
			4,
			39
		],
		[
			3
		],
		[],
		[
			5,
			6,
			11
		],
		[],
		[
			7,
			8
		],
		[],
		[
			9,
			10
		],
		[],
		[],
		[
			12,
			25,
			38
		],
		[
			13,
			17,
			18
		],
		[
			14,
			15
		],
		[],
		[
			16
		],
		[],
		[],
		[
			19,
			20
		],
		[],
		[
			21
		],
		[
			22,
			23,
			24
		],
		[],
		[],
		[],
		[
			26
		],
		[
			27,
			31
		],
		[
			28,
			29
		],
		[],
		[
			30
		],
		[],
		[
			32,
			33
		],
		[],
		[
			34
		],
		[
			35,
			36,
			37
		],
		[],
		[],
		[],
		[],
		[
			40
		],
		[],
		[
			42
		],
		[
			43,
			44
		],
		[],
		[
			45,
			46
		],
		[],
		[
			47,
			48,
			49,
			50
		],
		[],
		[],
		[],
		[]
	]
}