{
	"nodes": [
		"Module",
		"FunctionDef",
		"arguments",
		"arg",
		"Assign",
		"Name",
		"Num",
		"While",
		"Compare",
		"Name",
		"Lt",
		"Call",
		"Name",
		"Name",
		"If",
		"Compare",
		"Subscript",
		"Name",
		"Index",
		"Name",
		"Gt",
		"Subscript",
		"Name",
		"Index",
		"BinOp",
		"Name",
		"Add",
		"Num",
		"Then",
		"Assign",
		"Tuple",
		"Subscript",
		"Name",
		"Index",
		"Name",
		"Subscript",
		"Name",
		"Index",
		"BinOp",
		"Name",
		"Add",
		"Num",
		"Tuple",
		"Subscript",
		"Name",
		"Index",
		"BinOp",
		"Name",
		"Add",
		"Num",
		"Subscript",
		"Name",
		"Index",
		"Name",
		"Else",
		"Return",
		"Name",
		"Expr",
		"Call",
		"Name",
		"Call",
		"Name",
		"List",
		"Num",
		"Num",
		"Num",
		"Num"
	],
	"adj": [
		[
			1,
			57
		],
		[
			2,
			4,
			7,
			55
		],
		[
			3
		],
		[],
		[
			5,
			6
		],
		[],
		[],
		[
			8,
			14
		],
		[
			9,
			10,
			11
		],
		[],
		[],
		[
			12,
			13
		],
		[],
		[],
		[
			15,
			28,
			54
		],
		[
			16,
			20,
			21
		],
		[
			17,
			18
		],
		[],
		[
			19
		],
		[],
		[],
		[
			22,
			23
		],
		[],
		[
			24
		],
		[
			25,
			26,
			27
		],
		[],
		[],
		[],
		[
			29
		],
		[
			30,
			42
		],
		[
			31,
			35
		],
		[
			32,
			33
		],
		[],
		[
			34
		],
		[],
		[
			36,
			37
		],
		[],
		[
			38
		],
		[
			39,
			40,
			41
		],
		[],
		[],
		[],
		[
			43,
			50
		],
		[
			44,
			45
		],
		[],
		[
			46
		],
		[
			47,
			48,
			49
		],
		[],
		[],
		[],
		[
			51,
			52
		],
		[],
		[
			53
		],
		[],
		[],
		[
			56
		],
		[],
		[
			58
		],
		[
			59,
			60
		],
		[],
		[
			61,
			62
		],
		[],
		[
			63,
			64,
			65,
			66
		],
		[],
		[],
		[],
		[]
	]
}