{
	"nodes": [
		"Module",
		"FunctionDef",
		"arguments",
		"arg",
		"arg",
		"arg",
		"Assign",
		"Name",
		"Subscript",
		"Name",
		"Index",
		"Name",
		"Assign",
		"Subscript",
		"Name",
		"Index",
		"Name",
		"Subscript",
		"Name",
		"Index",
		"Name",
		"Assign",
		"Subscript",
		"Name",
		"Index",
		"Name",
		"Name",
		"FunctionDef",
		"arguments",
		"arg",
		"Assign",
		"Name",
		"NameConstant",
		"While",
		"Name",
		"For",
		"Name",
		"Call",
		"Name",
		"Num",
		"Call",
		"Name",
		"Name",
		"If",
		"Compare",
		"Subscript",
		"Name",
		"Index",
		"BinOp",
		"Name",
		"Sub",
		"Num",
		"Gt",
		"Subscript",
		"Name",
		"Index",
		"Name",
		"Then",
		"Expr",
		"Call",
		"Name",
		"Name",
		"BinOp",
		"Name",
		"Sub",
		"Num",
		"Name",
		"Assign",
		"Name",
		"NameConstant",
		"Else",
		"Return",
		"Name",
		"Expr",
		"Call",
		"Name",
		"Call",
		"Name",
		"List",
		"Num",
		"Num",
		"Num",
		"Num"
	],
	"adj": [
		[
			1,
			27,
			73
		],
		[
			2,
			6,
			12,
			21
		],
		[
			3,
			4,
			5
		],
		[],
		[],
		[],
		[
			7,
			8
		],
		[],
		[
			9,
			10
		],
		[],
		[
			11
		],
		[],
		[
			13,
			17
		],
		[
			14,
			15
		],
		[],
		[
			16
		],
		[],
		[
			18,
			19
		],
		[],
		[
			20
		],
		[],
		[
			22,
			26
		],
		[
			23,
			24
		],
		[],
		[
			25
		],
		[],
		[],
		[
			28,
			30,
			33,
			71
		],
		[
			29
		],
		[],
		[
			31,
			32
		],
		[],
		[],
		[
			34,
			35
		],
		[],
		[
			36,
			37,
			43
		],
		[],
		[
			38,
			39,
			40
		],
		[],
		[],
		[
			41,
			42
		],
		[],
		[],
		[
			44,
			57,
			70
		],
		[
			45,
			52,
			53
		],
		[
			46,
			47
		],
		[],
		[
			48
		],
		[
			49,
			50,
			51
		],
		[],
		[],
		[],
		[],
		[
			54,
			55
		],
		[],
		[
			56
		],
		[],
		[
			58,
			67
		],
		[
			59
		],
		[
			60,
			61,
			62,
			66
		],
		[],
		[],
		[
			63,
			64,
			65
		],
		[],
		[],
		[],
		[],
		[
			68,
			69
		],
		[],
		[],
		[],
		[
			72
		],
		[],
		[
			74
		],
		[
			75,
			76
		],
		[],
		[
			77,
			78
		],
		[],
		[
			79,
			80,
			81,
			82
		],
		[],
		[],
		[],
		[]
	]
}