{
	"nodes": [
		"Module",
		"FunctionDef",
		"arguments",
		"arg",
		"For",
		"Name",
		"Name",
		"For",
		"Name",
		"Name",
		"Pass",
		"Return",
		"Name",
		"Expr",
		"Call",
		"Name",
		"Call",
		"Name",
		"List",
		"Num",
		"Num",
		"Num",
		"Num"
	],
	"adj": [
		[
			1,
			13
		],
		[
			2,
			4,
			11
		],
		[
			3
		],
		[],
		[
			5,
			6,
			7
		],
		[],
		[],
		[
			8,
			9,
			10
		],
		[],
		[],
		[],
		[
			12
		],
		[],
		[
			14
		],
		[
			15,
			16
		],
		[],
		[
			17,
			18
		],
		[],
		[
			19,
			20,
			21,
			22
		],
		[],
		[],
		[],
		[]
	]
}