{
	"nodes": [
		"Module",
		"FunctionDef",
		"arguments",
		"arg",
		"Assign",
		"Name",
		"NameConstant",
		"While",
		"Name",
		"Assign",
		"Name",
		"NameConstant",
		"For",
		"Name",
		"Name",
		"If",
		"Compare",
		"Subscript",
		"Name",
		"Index",
		"Name",
		"Gt",
		"Subscript",
		"Name",
		"Index",
		"BinOp",
		"Name",
		"Add",
		"Num",
		"Then",
		"Assign",
		"Tuple",
		"Subscript",
		"Name",
		"Index",
		"Name",
		"Subscript",
		"Name",
		"Index",
		"BinOp",
		"Name",
		"Add",
		"Num",
		"Tuple",
		"Subscript",
		"Name",
		"Index",
		"BinOp",
		"Name",
		"Add",
		"Num",
		"Subscript",
		"Name",
		"Index",
		"Name",
		"Assign",
		"Name",
		"NameConstant",
		"Else",
		"Return",
		"Name",
		"Expr",
		"Call",
		"Name",
		"Call",
		"Name",
		"List",
		"Num",
		"Num",
		"Num",
		"Num"
	],
	"adj": [
		[
			1,
			61
		],
		[
			2,
			4,
			7,
			59
		],
		[
			3
		],
		[],
		[
			5,
			6
		],
		[],
		[],
		[
			8,
			9,
			12
		],
		[],
		[
			10,
			11
		],
		[],
		[],
		[
			13,
			14,
			15
		],
		[],
		[],
		[
			16,
			29,
			58
		],
		[
			17,
			21,
			22
		],
		[
			18,
			19
		],
		[],
		[
			20
		],
		[],
		[],
		[
			23,
			24
		],
		[],
		[
			25
		],
		[
			26,
			27,
			28
		],
		[],
		[],
		[],
		[
			30,
			55
		],
		[
			31,
			43
		],
		[
			32,
			36
		],
		[
			33,
			34
		],
		[],
		[
			35
		],
		[],
		[
			37,
			38
		],
		[],
		[
			39
		],
		[
			40,
			41,
			42
		],
		[],
		[],
		[],
		[
			44,
			51
		],
		[
			45,
			46
		],
		[],
		[
			47
		],
		[
			48,
			49,
			50
		],
		[],
		[],
		[],
		[
			52,
			53
		],
		[],
		[
			54
		],
		[],
		[
			56,
			57
		],
		[],
		[],
		[],
		[
			60
		],
		[],
		[
			62
		],
		[
			63,
			64
		],
		[],
		[
			65,
			66
		],
		[],
		[
			67,
			68,
			69,
			70
		],
		[],
		[],
		[],
		[]
	]
}