{
	"nodes": [
		"Module",
		"FunctionDef",
		"arguments",
		"arg",
		"Assign",
		"Name",
		"Num",
		"While",
		"Compare",
		"Name",
		"Lt",
		"BinOp",
		"Call",
		"Name",
		"Name",
		"Sub",
		"Num",
		"If",
		"Compare",
		"Subscript",
		"Name",
		"Index",
		"Name",
		"Gt",
		"Subscript",
		"Name",
		"Index",
		"BinOp",
		"Name",
		"Add",
		"Num",
		"Then",
		"Assign",
		"Tuple",
		"Subscript",
		"Name",
		"Index",
		"Name",
		"Subscript",
		"Name",
		"Index",
		"BinOp",
		"Name",
		"Add",
		"Num",
		"Tuple",
		"Subscript",
		"Name",
		"Index",
		"BinOp",
		"Name",
		"Add",
		"Num",
		"Subscript",
		"Name",
		"Index",
		"Name",
		"Else",
		"Assign",
		"Name",
		"BinOp",
		"Name",
		"Add",
		"Num",
		"Return",
		"Name",
		"Expr",
		"Call",
		"Name",
		"Call",
		"Name",
		"List",
		"Num",
		"Num",
		"Num",
		"Num"
	],
	"adj": [
		[
			1,
			66
		],
		[
			2,
			4,
			7,
			64
		],
		[
			3
		],
		[],
		[
			5,
			6
		],
		[],
		[],
		[
			8,
			17,
			58
		],
		[
			9,
			10,
			11
		],
		[],
		[],
		[
			12,
			15,
			16
		],
		[
			13,
			14
		],
		[],
		[],
		[],
		[],
		[
			18,
			31,
			57
		],
		[
			19,
			23,
			24
		],
		[
			20,
			21
		],
		[],
		[
			22
		],
		[],
		[],
		[
			25,
			26
		],
		[],
		[
			27
		],
		[
			28,
			29,
			30
		],
		[],
		[],
		[],
		[
			32
		],
		[
			33,
			45
		],
		[
			34,
			38
		],
		[
			35,
			36
		],
		[],
		[
			37
		],
		[],
		[
			39,
			40
		],
		[],
		[
			41
		],
		[
			42,
			43,
			44
		],
		[],
		[],
		[],
		[
			46,
			53
		],
		[
			47,
			48
		],
		[],
		[
			49
		],
		[
			50,
			51,
			52
		],
		[],
		[],
		[],
		[
			54,
			55
		],
		[],
		[
			56
		],
		[],
		[],
		[
			59,
			60
		],
		[],
		[
			61,
			62,
			63
		],
		[],
		[],
		[],
		[
			65
		],
		[],
		[
			67
		],
		[
			68,
			69
		],
		[],
		[
			70,
			71
		],
		[],
		[
			72,
			73,
			74,
			75
		],
		[],
		[],
		[],
		[]
	]
}