{
	"nodes": [
		"Module",
		"FunctionDef",
		"arguments",
		"arg",
		"For",
		"Name",
		"Name",
		"For",
		"Name",
		"Name",
		"If",
		"Compare",
		"Name",
		"Gt",
		"Name",
		"Then",
		"Assign",
		"Tuple",
		"Name",
		"Name",
		"Tuple",
		"Name",
		"Name",
		"Else",
		"Return",
		"Name",
		"Expr",
		"Call",
		"Name",
		"Call",
		"Name",
		"List",
		"Num",
		"Num",
		"Num",
		"Num"
	],
	"adj": [
		[
			1,
			26
		],
		[
			2,
			4,
			24
		],
		[
			3
		],
		[],
		[
			5,
			6,
			7
		],
		[],
		[],
		[
			8,
			9,
			10
		],
		[],
		[],
		[
			11,
			15,
			23
		],
		[
			12,
			13,
			14
		],
		[],
		[],
		[],
		[
			16
		],
		[
			17,
			20
		],
		[
			18,
			19
		],
		[],
		[],
		[
			21,
			22
		],
		[],
		[],
		[],
		[
			25
		],
		[],
		[
			27
		],
		[
			28,
			29
		],
		[],
		[
			30,
			31
		],
		[],
		[
			32,
			33,
			34,
			35
		],
		[],
		[],
		[],
		[]
	]
}