{
	"nodes": [
		"Module",
		"FunctionDef",
		"arguments",
		"arg",
		"For",
		"Name",
		"Call",
		"Name",
		"Call",
		"Name",
		"Name",
		"Assign",
		"Name",
		"NameConstant",
		"Assign",
		"Name",
		"Num",
		"While",
		"Compare",
		"Name",
		"Lt",
		"BinOp",
		"Call",
		"Name",
		"Name",
		"Sub",
		"Num",
		"If",
		"Compare",
		"Subscript",
		"Name",
		"Index",
		"Name",
		"Gt",
		"Subscript",
		"Name",
		"Index",
		"BinOp",
		"Name",
		"Add",
		"Num",
		"Then",
		"Assign",
		"Tuple",
		"Subscript",
		"Name",
		"Index",
		"Name",
		"Subscript",
		"Name",
		"Index",
		"BinOp",
		"Name",
		"Add",
		"Num",
		"Tuple",
		"Subscript",
		"Name",
		"Index",
		"BinOp",
		"Name",
		"Add",
		"Num",
		"Subscript",
		"Name",
		"Index",
		"Name",
		"Assign",
		"Name",
		"NameConstant",
		"Else",
		"Assign",
		"Name",
		"BinOp",
		"Name",
		"Add",
		"Num",
		"If",
		"Compare",
		"Name",
		"Eq",
		"NameConstant",
		"Then",
		"Break",
		"Else",
		"Return",
		"Name",
		"Expr",
		"Call",
		"Name",
		"Call",
		"Name",
		"List",
		"Num",
		"Num",
		"Num",
		"Num"
	],
	"adj": [
		[
			1,
			87
		],
		[
			2,
			4,
			85
		],
		[
			3
		],
		[],
		[
			5,
			6,
			11,
			14,
			17
		],
		[],
		[
			7,
			8
		],
		[],
		[
			9,
			10
		],
		[],
		[],
		[
			12,
			13
		],
		[],
		[],
		[
			15,
			16
		],
		[],
		[],
		[
			18,
			27,
			71,
			77
		],
		[
			19,
			20,
			21
		],
		[],
		[],
		[
			22,
			25,
			26
		],
		[
			23,
			24
		],
		[],
		[],
		[],
		[],
		[
			28,
			41,
			70
		],
		[
			29,
			33,
			34
		],
		[
			30,
			31
		],
		[],
		[
			32
		],
		[],
		[],
		[
			35,
			36
		],
		[],
		[
			37
		],
		[
			38,
			39,
			40
		],
		[],
		[],
		[],
		[
			42,
			67
		],
		[
			43,
			55
		],
		[
			44,
			48
		],
		[
			45,
			46
		],
		[],
		[
			47
		],
		[],
		[
			49,
			50
		],
		[],
		[
			51
		],
		[
			52,
			53,
			54
		],
		[],
		[],
		[],
		[
			56,
			63
		],
		[
			57,
			58
		],
		[],
		[
			59
		],
		[
			60,
			61,
			62
		],
		[],
		[],
		[],
		[
			64,
			65
		],
		[],
		[
			66
		],
		[],
		[
			68,
			69
		],
		[],
		[],
		[],
		[
			72,
			73
		],
		[],
		[
			74,
			75,
			76
		],
		[],
		[],
		[],
		[
			78,
			82,
			84
		],
		[
			79,
			80,
			81
		],
		[],
		[],
		[],
		[
			83
		],
		[],
		[],
		[
			86
		],
		[],
		[
			88
		],
		[
			89,
			90
		],
		[],
		[
			91,
			92
		],
		[],
		[
			93,
			94,
			95,
			96
		],
		[],
		[],
		[],
		[]
	]
}