{
	"nodes": [
		"Module",
		"FunctionDef",
		"arguments",
		"arg",
		"For",
		"Name",
		"Call",
		"Name",
		"Call",
		"Name",
		"Name",
		"Assign",
		"Name",
		"Subscript",
		"Name",
		"Index",
		"Name",
		"If",
		"Compare",
		"Name",
		"Lt",
		"Subscript",
		"Name",
		"Index",
		"BinOp",
		"Name",
		"Sub",
		"Num",
		"Then",
		"Assign",
		"Subscript",
		"Name",
		"Index",
		"Name",
		"Subscript",
		"Name",
		"Index",
		"BinOp",
		"Name",
		"Sub",
		"Num",
		"Assign",
		"Subscript",
		"Name",
		"Index",
		"BinOp",
		"Name",
		"Sub",
		"Num",
		"Name",
		"Else",
		"Return",
		"Name",
		"Expr",
		"Call",
		"Name",
		"Call",
		"Name",
		"List",
		"Num",
		"Num",
		"Num",
		"Num"
	],
	"adj": [
		[
			1,
			53
		],
		[
			2,
			4,
			51
		],
		[
			3
		],
		[],
		[
			5,
			6,
			11,
			17
		],
		[],
		[
			7,
			8
		],
		[],
		[
			9,
			10
		],
		[],
		[],
		[
			12,
			13
		],
		[],
		[
			14,
			15
		],
		[],
		[
			16
		],
		[],
		[
			18,
			28,
			50
		],
		[
			19,
			20,
			21
		],
		[],
		[],
		[
			22,
			23
		],
		[],
		[
			24
		],
		[
			25,
			26,
			27
		],
		[],
		[],
		[],
		[
			29,
			41
		],
		[
			30,
			34
		],
		[
			31,
			32
		],
		[],
		[
			33
		],
		[],
		[
			35,
			36
		],
		[],
		[
			37
		],
		[
			38,
			39,
			40
		],
		[],
		[],
		[],
		[
			42,
			49
		],
		[
			43,
			44
		],
		[],
		[
			45
		],
		[
			46,
			47,
			48
		],
		[],
		[],
		[],
		[],
		[],
		[
			52
		],
		[],
		[
			54
		],
		[
			55,
			56
		],
		[],
		[
			57,
			58
		],
		[],
		[
			59,
			60,
			61,
			62
		],
		[],
		[],
		[],
		[]
	]
}