{
	"nodes": [
		"Module",
		"FunctionDef",
		"arguments",
		"arg",
		"For",
		"Name",
		"Name",
		"Assign",
		"Name",
		"BinOp",
		"Name",
		"Sub",
		"Num",
		"Return",
		"Name",
		"Expr",
		"Call",
		"Name",
		"Call",
		"Name",
		"List",
		"Num",
		"Num",
		"Num",
		"Num"
	],
	"adj": [
		[
			1,
			15
		],
		[
			2,
			4,
			13
		],
		[
			3
		],
		[],
		[
			5,
			6,
			7
		],
		[],
		[],
		[
			8,
			9
		],
		[],
		[
			10,
			11,
			12
		],
		[],
		[],
		[],
		[
			14
		],
		[],
		[
			16
		],
		[
			17,
			18
		],
		[],
		[
			19,
			20
		],
		[],
		[
			21,
			22,
			23,
			24
		],
		[],
		[],
		[],
		[]
	]
}