{
	"nodes": [
		"Module",
		"FunctionDef",
		"arguments",
		"arg",
		"Assign",
		"Name",
		"Call",
		"Name",
		"Name",
		"For",
		"Name",
		"Call",
		"Name",
		"Num",
		"Name",
		"Assign",
		"Name",
		"Subscript",
		"Name",
		"Index",
		"Name",
		"Assign",
		"Name",
		"Name",
		"While",
		"BoolOp",
		"And",
		"Compare",
		"Name",
		"Gt",
		"Num",
		"Compare",
		"Name",
		"Lt",
		"Subscript",
		"Name",
		"Index",
		"BinOp",
		"Name",
		"Sub",
		"Num",
		"Assign",
		"Subscript",
		"Name",
		"Index",
		"Name",
		"Subscript",
		"Name",
		"Index",
		"BinOp",
		"Name",
		"Sub",
		"Num",
		"Assign",
		"Name",
		"BinOp",
		"Name",
		"Sub",
		"Num",
		"Assign",
		"Subscript",
		"Name",
		"Index",
		"Name",
		"Name",
		"Return",
		"Name",
		"Expr",
		"Call",
		"Name",
		"Call",
		"Name",
		"List",
		"Num",
		"Num",
		"Num",
		"Num"
	],
	"adj": [
		[
			1,
			67
		],
		[
			2,
			4,
			9,
			65
		],
		[
			3
		],
		[],
		[
			5,
			6
		],
		[],
		[
			7,
			8
		],
		[],
		[],
		[
			10,
			11,
			15,
			21,
			24,
			59
		],
		[],
		[
			12,
			13,
			14
		],
		[],
		[],
		[],
		[
			16,
			17
		],
		[],
		[
			18,
			19
		],
		[],
		[
			20
		],
		[],
		[
			22,
			23
		],
		[],
		[],
		[
			25,
			41,
			53
		],
		[
			26,
			27,
			31
		],
		[],
		[
			28,
			29,
			30
		],
		[],
		[],
		[],
		[
			32,
			33,
			34
		],
		[],
		[],
		[
			35,
			36
		],
		[],
		[
			37
		],
		[
			38,
			39,
			40
		],
		[],
		[],
		[],
		[
			42,
			46
		],
		[
			43,
			44
		],
		[],
		[
			45
		],
		[],
		[
			47,
			48
		],
		[],
		[
			49
		],
		[
			50,
			51,
			52
		],
		[],
		[],
		[],
		[
			54,
			55
		],
		[],
		[
			56,
			57,
			58
		],
		[],
		[],
		[],
		[
			60,
			64
		],
		[
			61,
			62
		],
		[],
		[
			63
		],
		[],
		[],
		[
			66
		],
		[],
		[
			68
		],
		[
			69,
			70
		],
		[],
		[
			71,
			72
		],
		[],
		[
			73,
			74,
			75,
			76
		],
		[],
		[],
		[],
		[]
	]
}