{
	"nodes": [
		"Module",
		"FunctionDef",
		"arguments",
		"arg",
		"For",
		"Name",
		"Call",
		"Name",
		"Call",
		"Name",
		"Name",
		"Assign",
		"Name",
		"Subscript",
		"Name",
		"Index",
		"Name",
		"Assign",
		"Name",
		"BinOp",
		"Name",
		"Sub",
		"Num",
		"While",
		"Compare",
		"Name",
		"Gt",
		"Num",
		"If",
		"Compare",
		"Name",
		"Lt",
		"Subscript",
		"Name",
		"Index",
		"Name",
		"Then",
		"Assign",
		"Subscript",
		"Name",
		"Index",
		"BinOp",
		"Name",
		"Add",
		"Num",
		"Subscript",
		"Name",
		"Index",
		"Name",
		"Assign",
		"Subscript",
		"Name",
		"Index",
		"Name",
		"Name",
		"Else",
		"AugAssign",
		"Name",
		"Sub",
		"Num",
		"Return",
		"Name",
		"Expr",
		"Call",
		"Name",
		"Call",
		"Name",
		"List",
		"Num",
		"Num",
		"Num",
		"Num"
	],
	"adj": [
		[
			1,
			62
		],
		[
			2,
			4,
			60
		],
		[
			3
		],
		[],
		[
			5,
			6,
			11,
			17,
			23
		],
		[],
		[
			7,
			8
		],
		[],
		[
			9,
			10
		],
		[],
		[],
		[
			12,
			13
		],
		[],
		[
			14,
			15
		],
		[],
		[
			16
		],
		[],
		[
			18,
			19
		],
		[],
		[
			20,
			21,
			22
		],
		[],
		[],
		[],
		[
			24,
			28,
			56
		],
		[
			25,
			26,
			27
		],
		[],
		[],
		[],
		[
			29,
			36,
			55
		],
		[
			30,
			31,
			32
		],
		[],
		[],
		[
			33,
			34
		],
		[],
		[
			35
		],
		[],
		[
			37,
			49
		],
		[
			38,
			45
		],
		[
			39,
			40
		],
		[],
		[
			41
		],
		[
			42,
			43,
			44
		],
		[],
		[],
		[],
		[
			46,
			47
		],
		[],
		[
			48
		],
		[],
		[
			50,
			54
		],
		[
			51,
			52
		],
		[],
		[
			53
		],
		[],
		[],
		[],
		[
			57,
			58,
			59
		],
		[],
		[],
		[],
		[
			61
		],
		[],
		[
			63
		],
		[
			64,
			65
		],
		[],
		[
			66,
			67
		],
		[],
		[
			68,
			69,
			70,
			71
		],
		[],
		[],
		[],
		[]
	]
}