{
	"nodes": [
		"Module",
		"FunctionDef",
		"arguments",
		"arg",
		"For",
		"Name",
		"Call",
		"Name",
		"Call",
		"Name",
		"Name",
		"Assign",
		"Name",
		"BinOp",
		"Name",
		"Sub",
		"Num",
		"While",
		"Compare",
		"Name",
		"Gt",
		"Num",
		"If",
		"Compare",
		"Subscript",
		"Name",
		"Index",
		"Name",
		"Lt",
		"Subscript",
		"Name",
		"Index",
		"Name",
		"Then",
		"Assign",
		"Tuple",
		"Subscript",
		"Name",
		"Index",
		"Name",
		"Subscript",
		"Name",
		"Index",
		"Name",
		"Tuple",
		"Subscript",
		"Name",
		"Index",
		"Name",
		"Subscript",
		"Name",
		"Index",
		"Name",
		"Else",
		"AugAssign",
		"Name",
		"Sub",
		"Num",
		"Return",
		"Name",
		"Expr",
		"Call",
		"Name",
		"Call",
		"Name",
		"List",
		"Num",
		"Num",
		"Num",
		"Num"
	],
	"adj": [
		[
			1,
			60
		],
		[
			2,
			4,
			58
		],
		[
			3
		],
		[],
		[
			5,
			6,
			11,
			17
		],
		[],
		[
			7,
			8
		],
		[],
		[
			9,
			10
		],
		[],
		[],
		[
			12,
			13
		],
		[],
		[
			14,
			15,
			16
		],
		[],
		[],
		[],
		[
			18,
			22,
			54
		],
		[
			19,
			20,
			21
		],
		[],
		[],
		[],
		[
			23,
			33,
			53
		],
		[
			24,
			28,
			29
		],
		[
			25,
			26
		],
		[],
		[
			27
		],
		[],
		[],
		[
			30,
			31
		],
		[],
		[
			32
		],
		[],
		[
			34
		],
		[
			35,
			44
		],
		[
			36,
			40
		],
		[
			37,
			38
		],
		[],
		[
			39
		],
		[],
		[
			41,
			42
		],
		[],
		[
			43
		],
		[],
		[
			45,
			49
		],
		[
			46,
			47
		],
		[],
		[
			48
		],
		[],
		[
			50,
			51
		],
		[],
		[
			52
		],
		[],
		[],
		[
			55,
			56,
			57
		],
		[],
		[],
		[],
		[
			59
		],
		[],
		[
			61
		],
		[
			62,
			63
		],
		[],
		[
			64,
			65
		],
		[],
		[
			66,
			67,
			68,
			69
		],
		[],
		[],
		[],
		[]
	]
}