{
	"nodes": [
		"Module",
		"FunctionDef",
		"arguments",
		"arg",
		"For",
		"Name",
		"Call",
		"Name",
		"Call",
		"Name",
		"Name",
		"Assign",
		"Name",
		"Subscript",
		"Name",
		"Index",
		"Name",
		"For",
		"Name",
		"Call",
		"Name",
		"Name",
		"Num",
		"UnaryOp",
		"USub",
		"Num",
		"If",
		"Compare",
		"Subscript",
		"Name",
		"Index",
		"Name",
		"Gt",
		"Name",
		"Then",
		"Assign",
		"Subscript",
		"Name",
		"Index",
		"BinOp",
		"Name",
		"Add",
		"Num",
		"Subscript",
		"Name",
		"Index",
		"Name",
		"Assign",
		"Subscript",
		"Name",
		"Index",
		"Name",
		"Name",
		"Else",
		"Return",
		"Name",
		"Expr",
		"Call",
		"Name",
		"Call",
		"Name",
		"List",
		"Num",
		"Num",
		"Num",
		"Num"
	],
	"adj": [
		[
			1,
			56
		],
		[
			2,
			4,
			54
		],
		[
			3
		],
		[],
		[
			5,
			6,
			11,
			17
		],
		[],
		[
			7,
			8
		],
		[],
		[
			9,
			10
		],
		[],
		[],
		[
			12,
			13
		],
		[],
		[
			14,
			15
		],
		[],
		[
			16
		],
		[],
		[
			18,
			19,
			26
		],
		[],
		[
			20,
			21,
			22,
			23
		],
		[],
		[],
		[],
		[
			24,
			25
		],
		[],
		[],
		[
			27,
			34,
			53
		],
		[
			28,
			32,
			33
		],
		[
			29,
			30
		],
		[],
		[
			31
		],
		[],
		[],
		[],
		[
			35,
			47
		],
		[
			36,
			43
		],
		[
			37,
			38
		],
		[],
		[
			39
		],
		[
			40,
			41,
			42
		],
		[],
		[],
		[],
		[
			44,
			45
		],
		[],
		[
			46
		],
		[],
		[
			48,
			52
		],
		[
			49,
			50
		],
		[],
		[
			51
		],
		[],
		[],
		[],
		[
			55
		],
		[],
		[
			57
		],
		[
			58,
			59
		],
		[],
		[
			60,
			61
		],
		[],
		[
			62,
			63,
			64,
			65
		],
		[],
		[],
		[],
		[]
	]
}