{
	"nodes": [
		"Module",
		"FunctionDef",
		"arguments",
		"arg",
		"Assign",
		"Name",
		"BinOp",
		"Call",
		"Name",
		"Name",
		"Sub",
		"Num",
		"Return",
		"Name",
		"Expr",
		"Call",
		"Name",
		"Call",
		"Name",
		"List",
		"Num",
		"Num",
		"Num",
		"Num"
	],
	"adj": [
		[
			1,
			14
		],
		[
			2,
			4,
			12
		],
		[
			3
		],
		[],
		[
			5,
			6
		],
		[],
		[
			7,
			10,
			11
		],
		[
			8,
			9
		],
		[],
		[],
		[],
		[],
		[
			13
		],
		[],
		[
			15
		],
		[
			16,
			17
		],
		[],
		[
			18,
			19
		],
		[],
		[
			20,
			21,
			22,
			23
		],
		[],
		[],
		[],
		[]
	]
}