{
	"nodes": [
		"Module",
		"FunctionDef",
		"arguments",
		"arg",
		"Assign",
		"Name",
		"Call",
		"Name",
		"Name",
		"For",
		"Name",
		"Call",
		"Name",
		"Num",
		"Name",
		"While",
		"Compare",
		"Subscript",
		"Name",
		"Index",
		"Name",
		"Lt",
		"Subscript",
		"Name",
		"Index",
		"BinOp",
		"Name",
		"Sub",
		"Num",
		"Assign",
		"Tuple",
		"Subscript",
		"Name",
		"Index",
		"Name",
		"Subscript",
		"Name",
		"Index",
		"BinOp",
		"Name",
		"Sub",
		"Num",
		"Tuple",
		"Subscript",
		"Name",
		"Index",
		"BinOp",
		"Name",
		"Sub",
		"Num",
		"Subscript",
		"Name",
		"Index",
		"Name",
		"Assign",
		"Name",
		"BinOp",
		"Name",
		"Sub",
		"Num",
		"Return",
		"Name",
		"Expr",
		"Call",
		"Name",
		"Call",
		"Name",
		"List",
		"Num",
		"Num",
		"Num",
		"Num"
	],
	"adj": [
		[
			1,
			62
		],
		[
			2,
			4,
			9,
			60
		],
		[
			3
		],
		[],
		[
			5,
			6
		],
		[],
		[
			7,
			8
		],
		[],
		[],
		[
			10,
			11,
			15
		],
		[],
		[
			12,
			13,
			14
		],
		[],
		[],
		[],
		[
			16,
			29,
			54
		],
		[
			17,
			21,
			22
		],
		[
			18,
			19
		],
		[],
		[
			20
		],
		[],
		[],
		[
			23,
			24
		],
		[],
		[
			25
		],
		[
			26,
			27,
			28
		],
		[],
		[],
		[],
		[
			30,
			42
		],
		[
			31,
			35
		],
		[
			32,
			33
		],
		[],
		[
			34
		],
		[],
		[
			36,
			37
		],
		[],
		[
			38
		],
		[
			39,
			40,
			41
		],
		[],
		[],
		[],
		[
			43,
			50
		],
		[
			44,
			45
		],
		[],
		[
			46
		],
		[
			47,
			48,
			49
		],
		[],
		[],
		[],
		[
			51,
			52
		],
		[],
		[
			53
		],
		[],
		[
			55,
			56
		],
		[],
		[
			57,
			58,
			59
		],
		[],
		[],
		[],
		[
			61
		],
		[],
		[
			63
		],
		[
			64,
			65
		],
		[],
		[
			66,
			67
		],
		[],
		[
			68,
			69,
			70,
			71
		],
		[],
		[],
		[],
		[]
	]
}