{
	"nodes": [
		"Module",
		"FunctionDef",
		"arguments",
		"arg",
		"For",
		"Name",
		"Call",
		"Name",
		"Num",
		"Call",
		"Name",
		"Name",
		"Assign",
		"Name",
		"Subscript",
		"Name",
		"Index",
		"Name",
		"Assign",
		"Name",
		"Name",
		"While",
		"BoolOp",
		"And",
		"Compare",
		"Name",
		"Gt",
		"Num",
		"Compare",
		"Subscript",
		"Name",
		"Index",
		"BinOp",
		"Name",
		"Sub",
		"Num",
		"Gt",
		"Name",
		"Assign",
		"Subscript",
		"Name",
		"Index",
		"Name",
		"Subscript",
		"Name",
		"Index",
		"BinOp",
		"Name",
		"Sub",
		"Num",
		"Assign",
		"Name",
		"BinOp",
		"Name",
		"Sub",
		"Num",
		"Assign",
		"Subscript",
		"Name",
		"Index",
		"Name",
		"Name",
		"Return",
		"Name"
	],
	"adj": [
		[
			1
		],
		[
			2,
			4,
			62
		],
		[
			3
		],
		[],
		[
			5,
			6,
			12,
			18,
			21,
			56
		],
		[],
		[
			7,
			8,
			9
		],
		[],
		[],
		[
			10,
			11
		],
		[],
		[],
		[
			13,
			14
		],
		[],
		[
			15,
			16
		],
		[],
		[
			17
		],
		[],
		[
			19,
			20
		],
		[],
		[],
		[
			22,
			38,
			50
		],
		[
			23,
			24,
			28
		],
		[],
		[
			25,
			26,
			27
		],
		[],
		[],
		[],
		[
			29,
			36,
			37
		],
		[
			30,
			31
		],
		[],
		[
			32
		],
		[
			33,
			34,
			35
		],
		[],
		[],
		[],
		[],
		[],
		[
			39,
			43
		],
		[
			40,
			41
		],
		[],
		[
			42
		],
		[],
		[
			44,
			45
		],
		[],
		[
			46
		],
		[
			47,
			48,
			49
		],
		[],
		[],
		[],
		[
			51,
			52
		],
		[],
		[
			53,
			54,
			55
		],
		[],
		[],
		[],
		[
			57,
			61
		],
		[
			58,
			59
		],
		[],
		[
			60
		],
		[],
		[],
		[
			63
		],
		[]
	]
}