{
	"nodes": [
		"Module",
		"FunctionDef",
		"arguments",
		"arg",
		"For",
		"Name",
		"Call",
		"Name",
		"Call",
		"Name",
		"Name",
		"Assign",
		"Name",
		"Subscript",
		"Name",
		"Index",
		"Name",
		"For",
		"Name",
		"Call",
		"Name",
		"BinOp",
		"Name",
		"Sub",
		"Num",
		"UnaryOp",
		"USub",
		"Num",
		"UnaryOp",
		"USub",
		"Num",
		"If",
		"Compare",
		"Subscript",
		"Name",
		"Index",
		"Name",
		"Gt",
		"Name",
		"Then",
		"Assign",
		"Subscript",
		"Name",
		"Index",
		"BinOp",
		"Name",
		"Add",
		"Num",
		"Subscript",
		"Name",
		"Index",
		"Name",
		"Assign",
		"Subscript",
		"Name",
		"Index",
		"Name",
		"Name",
		"Else",
		"Return",
		"Name",
		"Expr",
		"Call",
		"Name",
		"Call",
		"Name",
		"List",
		"Num",
		"Num",
		"Num",
		"Num"
	],
	"adj": [
		[
			1,
			61
		],
		[
			2,
			4,
			59
		],
		[
			3
		],
		[],
		[
			5,
			6,
			11,
			17
		],
		[],
		[
			7,
			8
		],
		[],
		[
			9,
			10
		],
		[],
		[],
		[
			12,
			13
		],
		[],
		[
			14,
			15
		],
		[],
		[
			16
		],
		[],
		[
			18,
			19,
			31
		],
		[],
		[
			20,
			21,
			25,
			28
		],
		[],
		[
			22,
			23,
			24
		],
		[],
		[],
		[],
		[
			26,
			27
		],
		[],
		[],
		[
			29,
			30
		],
		[],
		[],
		[
			32,
			39,
			58
		],
		[
			33,
			37,
			38
		],
		[
			34,
			35
		],
		[],
		[
			36
		],
		[],
		[],
		[],
		[
			40,
			52
		],
		[
			41,
			48
		],
		[
			42,
			43
		],
		[],
		[
			44
		],
		[
			45,
			46,
			47
		],
		[],
		[],
		[],
		[
			49,
			50
		],
		[],
		[
			51
		],
		[],
		[
			53,
			57
		],
		[
			54,
			55
		],
		[],
		[
			56
		],
		[],
		[],
		[],
		[
			60
		],
		[],
		[
			62
		],
		[
			63,
			64
		],
		[],
		[
			65,
			66
		],
		[],
		[
			67,
			68,
			69,
			70
		],
		[],
		[],
		[],
		[]
	]
}