{
	"nodes": [
		"Module",
		"FunctionDef",
		"arguments",
		"arg",
		"For",
		"Name",
		"Call",
		"Name",
		"Call",
		"Name",
		"Name",
		"Assign",
		"Name",
		"Name",
		"While",
		"Compare",
		"Name",
		"Gt",
		"Num",
		"If",
		"Compare",
		"Subscript",
		"Name",
		"Index",
		"BinOp",
		"Name",
		"Sub",
		"Num",
		"Gt",
		"Subscript",
		"Name",
		"Index",
		"Name",
		"Then",
		"Assign",
		"Tuple",
		"Subscript",
		"Name",
		"Index",
		"BinOp",
		"Name",
		"Sub",
		"Num",
		"Subscript",
		"Name",
		"Index",
		"Name",
		"Tuple",
		"Subscript",
		"Name",
		"Index",
		"Name",
		"Subscript",
		"Name",
		"Index",
		"BinOp",
		"Name",
		"Sub",
		"Num",
		"Else",
		"Break",
		"Assign",
		"Name",
		"BinOp",
		"Name",
		"Sub",
		"Num",
		"Return",
		"Name",
		"Expr",
		"Call",
		"Name",
		"Call",
		"Name",
		"List",
		"Num",
		"Num",
		"Num",
		"Num"
	],
	"adj": [
		[
			1,
			69
		],
		[
			2,
			4,
			67
		],
		[
			3
		],
		[],
		[
			5,
			6,
			11,
			14
		],
		[],
		[
			7,
			8
		],
		[],
		[
			9,
			10
		],
		[],
		[],
		[
			12,
			13
		],
		[],
		[],
		[
			15,
			19,
			61
		],
		[
			16,
			17,
			18
		],
		[],
		[],
		[],
		[
			20,
			33,
			59
		],
		[
			21,
			28,
			29
		],
		[
			22,
			23
		],
		[],
		[
			24
		],
		[
			25,
			26,
			27
		],
		[],
		[],
		[],
		[],
		[
			30,
			31
		],
		[],
		[
			32
		],
		[],
		[
			34
		],
		[
			35,
			47
		],
		[
			36,
			43
		],
		[
			37,
			38
		],
		[],
		[
			39
		],
		[
			40,
			41,
			42
		],
		[],
		[],
		[],
		[
			44,
			45
		],
		[],
		[
			46
		],
		[],
		[
			48,
			52
		],
		[
			49,
			50
		],
		[],
		[
			51
		],
		[],
		[
			53,
			54
		],
		[],
		[
			55
		],
		[
			56,
			57,
			58
		],
		[],
		[],
		[],
		[
			60
		],
		[],
		[
			62,
			63
		],
		[],
		[
			64,
			65,
			66
		],
		[],
		[],
		[],
		[
			68
		],
		[],
		[
			70
		],
		[
			71,
			72
		],
		[],
		[
			73,
			74
		],
		[],
		[
			75,
			76,
			77,
			78
		],
		[],
		[],
		[],
		[]
	]
}