{
	"nodes": [
		"Module",
		"FunctionDef",
		"arguments",
		"arg",
		"Assign",
		"Name",
		"Call",
		"Name",
		"Name",
		"Assign",
		"Name",
		"Num",
		"While",
		"Compare",
		"Name",
		"LtE",
		"BinOp",
		"Name",
		"Sub",
		"Num",
		"Assign",
		"Name",
		"Subscript",
		"Name",
		"Index",
		"Name",
		"Assign",
		"Name",
		"Name",
		"While",
		"Compare",
		"Subscript",
		"Name",
		"Index",
		"BinOp",
		"Name",
		"Sub",
		"Num",
		"Gt",
		"Name",
		"Assign",
		"Subscript",
		"Name",
		"Index",
		"Name",
		"Subscript",
		"Name",
		"Index",
		"BinOp",
		"Name",
		"Sub",
		"Num",
		"Assign",
		"Name",
		"BinOp",
		"Name",
		"Sub",
		"Num",
		"Assign",
		"Subscript",
		"Name",
		"Index",
		"BinOp",
		"Name",
		"Sub",
		"Num",
		"Name",
		"Assign",
		"Name",
		"BinOp",
		"Name",
		"Add",
		"Num",
		"Return",
		"Name",
		"Expr",
		"Call",
		"Name",
		"Call",
		"Name",
		"List",
		"Num",
		"Num",
		"Num",
		"Num",
		"Num"
	],
	"adj": [
		[
			1,
			75
		],
		[
			2,
			4,
			9,
			12,
			73
		],
		[
			3
		],
		[],
		[
			5,
			6
		],
		[],
		[
			7,
			8
		],
		[],
		[],
		[
			10,
			11
		],
		[],
		[],
		[
			13,
			20,
			26,
			29,
			67
		],
		[
			14,
			15,
			16
		],
		[],
		[],
		[
			17,
			18,
			19
		],
		[],
		[],
		[],
		[
			21,
			22
		],
		[],
		[
			23,
			24
		],
		[],
		[
			25
		],
		[],
		[
			27,
			28
		],
		[],
		[],
		[
			30,
			40,
			52,
			58
		],
		[
			31,
			38,
			39
		],
		[
			32,
			33
		],
		[],
		[
			34
		],
		[
			35,
			36,
			37
		],
		[],
		[],
		[],
		[],
		[],
		[
			41,
			45
		],
		[
			42,
			43
		],
		[],
		[
			44
		],
		[],
		[
			46,
			47
		],
		[],
		[
			48
		],
		[
			49,
			50,
			51
		],
		[],
		[],
		[],
		[
			53,
			54
		],
		[],
		[
			55,
			56,
			57
		],
		[],
		[],
		[],
		[
			59,
			66
		],
		[
			60,
			61
		],
		[],
		[
			62
		],
		[
			63,
			64,
			65
		],
		[],
		[],
		[],
		[],
		[
			68,
			69
		],
		[],
		[
			70,
			71,
			72
		],
		[],
		[],
		[],
		[
			74
		],
		[],
		[
			76
		],
		[
			77,
			78
		],
		[],
		[
			79,
			80
		],
		[],
		[
			81,
			82,
			83,
			84,
			85
		],
		[],
		[],
		[],
		[],
		[]
	]
}