{
	"nodes": [
		"Module",
		"FunctionDef",
		"arguments",
		"arg",
		"For",
		"Name",
		"Call",
		"Name",
		"Call",
		"Name",
		"Name",
		"Assign",
		"Name",
		"BinOp",
		"Name",
		"Sub",
		"Num",
		"If",
		"Compare",
		"Subscript",
		"Name",
		"Index",
		"Name",
		"Lt",
		"Subscript",
		"Name",
		"Index",
		"Name",
		"Then",
		"Assign",
		"Tuple",
		"Subscript",
		"Name",
		"Index",
		"Name",
		"Subscript",
		"Name",
		"Index",
		"BinOp",
		"Name",
		"Add",
		"Num",
		"Tuple",
		"Subscript",
		"Name",
		"Index",
		"Name",
		"Subscript",
		"Name",
		"Index",
		"Name",
		"Else",
		"Return",
		"Name",
		"Expr",
		"Call",
		"Name",
		"Call",
		"Name",
		"List",
		"Num",
		"Num",
		"Num",
		"Num"
	],
	"adj": [
		[
			1,
			54
		],
		[
			2,
			4,
			52
		],
		[
			3
		],
		[],
		[
			5,
			6,
			11,
			17
		],
		[],
		[
			7,
			8
		],
		[],
		[
			9,
			10
		],
		[],
		[],
		[
			12,
			13
		],
		[],
		[
			14,
			15,
			16
		],
		[],
		[],
		[],
		[
			18,
			28,
			51
		],
		[
			19,
			23,
			24
		],
		[
			20,
			21
		],
		[],
		[
			22
		],
		[],
		[],
		[
			25,
			26
		],
		[],
		[
			27
		],
		[],
		[
			29
		],
		[
			30,
			42
		],
		[
			31,
			35
		],
		[
			32,
			33
		],
		[],
		[
			34
		],
		[],
		[
			36,
			37
		],
		[],
		[
			38
		],
		[
			39,
			40,
			41
		],
		[],
		[],
		[],
		[
			43,
			47
		],
		[
			44,
			45
		],
		[],
		[
			46
		],
		[],
		[
			48,
			49
		],
		[],
		[
			50
		],
		[],
		[],
		[
			53
		],
		[],
		[
			55
		],
		[
			56,
			57
		],
		[],
		[
			58,
			59
		],
		[],
		[
			60,
			61,
			62,
			63
		],
		[],
		[],
		[],
		[]
	]
}