{
	"nodes": [
		"Module",
		"FunctionDef",
		"arguments",
		"arg",
		"FunctionDef",
		"arguments",
		"arg",
		"arg",
		"Assign",
		"Name",
		"Subscript",
		"Name",
		"Index",
		"Name",
		"Assign",
		"Subscript",
		"Name",
		"Index",
		"Name",
		"Subscript",
		"Name",
		"Index",
		"BinOp",
		"Name",
		"Add",
		"Num",
		"Assign",
		"Subscript",
		"Name",
		"Index",
		"BinOp",
		"Name",
		"Add",
		"Num",
		"Name",
		"For",
		"Name",
		"Call",
		"Name",
		"Call",
		"Name",
		"Name",
		"For",
		"Name",
		"Call",
		"Name",
		"BinOp",
		"Call",
		"Name",
		"Name",
		"Sub",
		"Num",
		"If",
		"Compare",
		"Subscript",
		"Name",
		"Index",
		"Name",
		"Gt",
		"Subscript",
		"Name",
		"Index",
		"BinOp",
		"Name",
		"Add",
		"Num",
		"Then",
		"Expr",
		"Call",
		"Name",
		"Name",
		"Name",
		"Else",
		"Return",
		"Name"
	],
	"adj": [
		[
			1
		],
		[
			2,
			4,
			35,
			73
		],
		[
			3
		],
		[],
		[
			5,
			8,
			14,
			26
		],
		[
			6,
			7
		],
		[],
		[],
		[
			9,
			10
		],
		[],
		[
			11,
			12
		],
		[],
		[
			13
		],
		[],
		[
			15,
			19
		],
		[
			16,
			17
		],
		[],
		[
			18
		],
		[],
		[
			20,
			21
		],
		[],
		[
			22
		],
		[
			23,
			24,
			25
		],
		[],
		[],
		[],
		[
			27,
			34
		],
		[
			28,
			29
		],
		[],
		[
			30
		],
		[
			31,
			32,
			33
		],
		[],
		[],
		[],
		[],
		[
			36,
			37,
			42
		],
		[],
		[
			38,
			39
		],
		[],
		[
			40,
			41
		],
		[],
		[],
		[
			43,
			44,
			52
		],
		[],
		[
			45,
			46
		],
		[],
		[
			47,
			50,
			51
		],
		[
			48,
			49
		],
		[],
		[],
		[],
		[],
		[
			53,
			66,
			72
		],
		[
			54,
			58,
			59
		],
		[
			55,
			56
		],
		[],
		[
			57
		],
		[],
		[],
		[
			60,
			61
		],
		[],
		[
			62
		],
		[
			63,
			64,
			65
		],
		[],
		[],
		[],
		[
			67
		],
		[
			68
		],
		[
			69,
			70,
			71
		],
		[],
		[],
		[],
		[],
		[
			74
		],
		[]
	],
	"var": {
		"sort": [
			1
		],
		"a": [
			3,
			6,
			11,
			16,
			20,
			28,
			41,
			49,
			55,
			60,
			70,
			74
		],
		"swap": [
			4,
			69
		],
		"i": [
			7,
			13,
			18,
			23,
			31,
			36
		],
		"tmp": [
			9,
			34
		],
		"range": [
			38,
			45
		],
		"len": [
			40,
			48
		],
		"j": [
			43,
			57,
			63,
			71
		]
	}
}