{
	"nodes": [
		"Module",
		"FunctionDef",
		"arguments",
		"arg",
		"For",
		"Name",
		"Call",
		"Name",
		"Call",
		"Name",
		"Name",
		"Assign",
		"Name",
		"NameConstant",
		"For",
		"Name",
		"Call",
		"Name",
		"BinOp",
		"Call",
		"Name",
		"Name",
		"Sub",
		"Num",
		"If",
		"Compare",
		"Subscript",
		"Name",
		"Index",
		"Name",
		"Gt",
		"Subscript",
		"Name",
		"Index",
		"BinOp",
		"Name",
		"Add",
		"Num",
		"Then",
		"Assign",
		"Name",
		"Subscript",
		"Name",
		"Index",
		"Name",
		"Assign",
		"Subscript",
		"Name",
		"Index",
		"Name",
		"Subscript",
		"Name",
		"Index",
		"BinOp",
		"Name",
		"Add",
		"Num",
		"Assign",
		"Subscript",
		"Name",
		"Index",
		"BinOp",
		"Name",
		"Add",
		"Num",
		"Name",
		"Assign",
		"Name",
		"NameConstant",
		"Else",
		"Return",
		"Name"
	],
	"adj": [
		[
			1
		],
		[
			2,
			4,
			70
		],
		[
			3
		],
		[],
		[
			5,
			6,
			11,
			14
		],
		[],
		[
			7,
			8
		],
		[],
		[
			9,
			10
		],
		[],
		[],
		[
			12,
			13
		],
		[],
		[],
		[
			15,
			16,
			24
		],
		[],
		[
			17,
			18
		],
		[],
		[
			19,
			22,
			23
		],
		[
			20,
			21
		],
		[],
		[],
		[],
		[],
		[
			25,
			38,
			69
		],
		[
			26,
			30,
			31
		],
		[
			27,
			28
		],
		[],
		[
			29
		],
		[],
		[],
		[
			32,
			33
		],
		[],
		[
			34
		],
		[
			35,
			36,
			37
		],
		[],
		[],
		[],
		[
			39,
			45,
			57,
			66
		],
		[
			40,
			41
		],
		[],
		[
			42,
			43
		],
		[],
		[
			44
		],
		[],
		[
			46,
			50
		],
		[
			47,
			48
		],
		[],
		[
			49
		],
		[],
		[
			51,
			52
		],
		[],
		[
			53
		],
		[
			54,
			55,
			56
		],
		[],
		[],
		[],
		[
			58,
			65
		],
		[
			59,
			60
		],
		[],
		[
			61
		],
		[
			62,
			63,
			64
		],
		[],
		[],
		[],
		[],
		[
			67,
			68
		],
		[],
		[],
		[],
		[
			71
		],
		[]
	],
	"var": {
		"sort": [
			1
		],
		"a": [
			3,
			10,
			21,
			27,
			32,
			42,
			47,
			51,
			59,
			71
		],
		"i": [
			5
		],
		"range": [
			7,
			17
		],
		"len": [
			9,
			20
		],
		"swapped": [
			12,
			67
		],
		"j": [
			15,
			29,
			35,
			44,
			49,
			54,
			62
		],
		"tmp": [
			40,
			65
		]
	}
}