{
	"nodes": [
		"Module",
		"FunctionDef",
		"arguments",
		"arg",
		"FunctionDef",
		"arguments",
		"arg",
		"arg",
		"Assign",
		"Name",
		"Subscript",
		"Name",
		"Index",
		"Name",
		"Assign",
		"Subscript",
		"Name",
		"Index",
		"Name",
		"Subscript",
		"Name",
		"Index",
		"BinOp",
		"Name",
		"Add",
		"Num",
		"Assign",
		"Subscript",
		"Name",
		"Index",
		"BinOp",
		"Name",
		"Add",
		"Num",
		"Name",
		"For",
		"Name",
		"Call",
		"Name",
		"Call",
		"Name",
		"Name",
		"Pass",
		"Return",
		"Name"
	],
	"adj": [
		[
			1
		],
		[
			2,
			4,
			35,
			43
		],
		[
			3
		],
		[],
		[
			5,
			8,
			14,
			26
		],
		[
			6,
			7
		],
		[],
		[],
		[
			9,
			10
		],
		[],
		[
			11,
			12
		],
		[],
		[
			13
		],
		[],
		[
			15,
			19
		],
		[
			16,
			17
		],
		[],
		[
			18
		],
		[],
		[
			20,
			21
		],
		[],
		[
			22
		],
		[
			23,
			24,
			25
		],
		[],
		[],
		[],
		[
			27,
			34
		],
		[
			28,
			29
		],
		[],
		[
			30
		],
		[
			31,
			32,
			33
		],
		[],
		[],
		[],
		[],
		[
			36,
			37,
			42
		],
		[],
		[
			38,
			39
		],
		[],
		[
			40,
			41
		],
		[],
		[],
		[],
		[
			44
		],
		[]
	],
	"var": {
		"sort": [
			1
		],
		"a": [
			3,
			6,
			11,
			16,
			20,
			28,
			41,
			44
		],
		"swap": [
			4
		],
		"i": [
			7,
			13,
			18,
			23,
			31,
			36
		],
		"tmp": [
			9,
			34
		],
		"range": [
			38
		],
		"len": [
			40
		]
	}
}